Nom,Adresse,Association,nb_parcelles,Surface_totale,Latitude,Longitude
TERRE PROMISE,CHEMIN DES BATELIERS,"Asso . ""Loire & Jardins""",86,14600.16,47.2205751819, -1.50911366625
CROISSANT,RUE DU CROISSANT,"Asso. ""Jardins de la Marrière """,90,15655.75,47.23514746, -1.52309171309
LES BRUYERES,RUE DE PONT AVEN,"Asso "" Les jardins des bruyeres""",30,11306.78,47.2674981252, -1.57651901173
LE 16 WATT,RUE PETITE BIESSE,INTERFERENCES -16 watts,1,125.99,47.2036054087, -1.54824127337
GRAND CARCOUET,RUE LOUIS BRISSET,Jardi-Passion,1,492.78,47.2280953064, -1.59402434286
JAMET,RUE DU JAMET,Senteurs Gourmandes du Jamet,33,2449.89,47.208269052, -1.60505700096
JARDIN PARTAGE BRECHOIR  - G,RUE JULES BRECHOIR,CARRE DE CULTURE,1,74.15,47.2254932078, -1.52244833611
JARDINS FAMILIAUX DES CHAUPIERES,CHEMIN DES CHAUPIERES,Asso.Jardins Familiaux Nantais,96,17496.79,47.2440474873, -1.49756415177
JARDIN PARTAGE BA'BOHNEUR,RUE  BABONNEAU,BIO-T-FUL,1,483.12,47.2072862356, -1.57754732939
BOUCARDIERE,RUE DE L'ABBAYE,Asso.Jardins Familiaux Nantais,10,2030.87,47.2021953536, -1.59877124143
BREIL/COUBERTIN,BD PIERRE DE COUBERTIN,Asso.Jardins Familiaux Nantais,14,1743.14,47.228175421, -1.58576357107
COLLINES,CHEMIN DES COLLINES,"Asso ""les Jardins des Collines""",31,7683.06,47.2420588342, -1.51645837526
HALVEQUE/BEAUJOIRE,RUE LEON SERPOLLET,Asso.Jardins Familiaux Nantais,12,713.68,47.2556186548, -1.52052714556
JARDIN PARTAGE DU JAMET,RUE DU JAMET,CSC ACCOORD,1,123.93,47.2076904736, -1.60574126128
JARDIN PARTAGE LA NIZANERIE,RUE PAUL NIZAN,LA NIZANERIE,1,132.23,47.2054306536, -1.55152023247
JARDIN PARTAGE CLOS TOREAU,RUE D'HENDAYE,CLSH,2,260.93,47.1956317378, -1.52824225637
JARDIN PARTAGE LEHUEDE,RUE LE HUEDE,,1,104.08,47.2014715094, -1.57869987645
RUE JARDINEE DU BOIS HERCE,CARREFOUR BOIS HERCE-MARSEILLAISE,COLLECTIFS DE RIVERAINS,2,124.9,47.2073716603, -1.59335207096
JARDIN PARTAGE COUR CATHUIS,RUE DU POITOU,,1,273.36,47.2227575243, -1.5635728748
LA ROCHE,CHEMIN DE LA ROCHE,"Asso "" Les jardins de la Roche""",17,4013.0,47.2194390173, -1.52344149669
MOUTONNERIE,RUE FRANSCISCO FERRER,Asso.Jardins Familiaux Nantais,23,3829.54,47.2218544644, -1.53292619487
JARDIN D'USAGE DERVALLIERES,RUE LOUIS LE NAIN,CLCV rue Charles Perron,1,2029.65,47.2264348484, -1.59932091276
JARDINS FAMILIAUX SALVADOR ALLENDE,BOULEVARD SALVADOR ALLENDE,,10,1198.45,47.2065631782, -1.5785408044
JARDIN PARTAGE LA MAIN VERTE  - G,RUE BECQUEREL,,1,463.47,47.2381591231, -1.51903039687
RUE JARDINEE DES ARTISANS,RUE DES ARTISANS,COLLECTIFS DE RIVERAINS,3,5.18,47.2410414286, -1.52703673638
AMANDE,BD RENE CASSIN,"Asso ""Les Jardins de l'Amande""",21,4754.45,47.2626386018, -1.57701679504
BOIS DES ANSES,CHEMIN DES ANSES,Asso.Jardins Familiaux Nantais,36,9239.9,47.2457364696, -1.49076499324
LES OBLATES,RUE DE LA BRIANDERIE,Les potagers des Oblates,14,1656.88,47.2007077767, -1.585985843
JARDIN PARTAGE  CAMILLE GUERIN  - G,RUE CAMILLE GUERIN,COMPOSTEUR GUERIN COUDRAY,1,130.9,47.2305755391, -1.54325223407
JARDIN PARTAGE GASTON TURPIN  - G,RUE GASTON TURPIN,,1,172.91,47.2243719265, -1.54159519108
JARDIN PARTAGE RIPOSSIERE,RUE DE LA RIPOSSIERE,,1,1173.42,47.193696462, -1.53289989576
JARDIN PARTAGE  SEME QUI VEUT,1 RUE D'ANGLETERRE,COLLECTIF RIVERAINS,1,316.94,47.2144281885, -1.52615436916
CHEZINE,BD DU MASSACRE,Asso.Jardins Familiaux Nantais,21,3217.96,47.229398432, -1.59654090332
FOURNILIERE,RUE JULES PIEDELEU,Asso. Jardins de la Fournilière,120,31604.69,47.2125374805, -1.58895940404
EGLANTIERS,RTE DE LA CHAPELLE SUR ERDRE,"Asso. ""Les Jardins des Eglantiers""",92,22966.31,47.2674981252, -1.57651901173
Le GARDEN'KOFF - G,SQUARE DE HONGRIE,Les Idéelles,1,83.76,47.2160658559, -1.52439614489
JARDIN PARTAGE DE LA BOISSIERE  - G,RUE PROSPERE MERIMEE,,1,645.47,47.2546670756, -1.56825372612
JARDIN PARTAGE COMM'UN JARDIN  - G,RUE DE LA BASSE CHESNAIE,NATURALIE CHESNAIE,1,289.15,47.2435803426, -1.51702860763
LE TRAIT D'OIGNON  - G,RUE DE LA PLANCHE AU GUE,Au jardin St Jo,1,319.33,47.2698478246, -1.52197971102
PRAIRIE D'AMONT,ALLEE ALAIN GERBAULT,CA POUSSE EN AMONT,1,168.78,47.2097304596, -1.52537316662
SUZANNE LENGLEN,RUE SUZANNE LENGLEN,Confédération Syndicale des Familles,1,532.4,47.2290656486, -1.58786484993
AMAZIONA GARDEN,RUE DE TCHECOSLOVAQUIE,,1,28.84,47.214425015, -1.53221790274
RUE JARDINEE  FELIX FOURNIER,PLACE FELIX FOURNIER,COLLECTIF DE RIVERAINS,1,5.67,47.215212417, -1.55804645099
JARDIN PARTAGE  DES REUNIS,CHEMIN DES REUNIS,,1,51.74,47.1995770115, -1.60017156468
JARDIN PARTAGE LA HALUCHERE LE PERRAY  - G,1 RUE JULES GRANDJOUAN,CSC La Haluchère,1,84.97,47.2470807499, -1.51247568554
JARDINS FAMILIAUX PORT BOYER,RUE DU PORT BOYER,,20,2108.52,47.2423364966, -1.54191275306
JARDIN PARTAGE DE LA BALEINE,SQUARE DES COMBATTANTS AFRIQUE DU NORD,GRAINES DE BALEINE,1,1808.85,47.2093093017, -1.57120638753
JARDIN PARTAGE BERGE NORD,RUE GASTON DOUMERGUE,COLLECTIF DE RIVERAINS,1,211.46,47.2080490134, -1.54547620114
RUE JARDINEE DE TOURAINE,RUE DE TOURAINE,COLLECTIF DE RIVERAINS,12,934.73,47.2269384572, -1.56348983468
JARDIN PARTAGE GUINEAUDEAU,RUE BATONNIER GUINAUDEAU,DLC,1,271.72,47.2098064418, -1.5663407852
CONTRIE,RUE DU CORPS DE GARDE,Asso.Jardins Familiaux Nantais,78,17043.26,47.2189973137, -1.60087770957
EPINETTES,RUE DES EPINETTES,"Asso. ""Mille et un jardins""",13,1677.66,47.2287024439, -1.52084081009
BOIS DE LA MUSSE,RUE DU BOIS DE LA MUSSE,Asso.Jardins Familiaux Nantais,69,12293.32,47.2037889593, -1.61293861061
VERTAIS,RUE VERTAIS,Asso.Jardins du Vertais,10,1117.92,47.2020816057, -1.54694666736
LAIT DE MAI,RUE EMILE PEHANT,"Asso. ""Des petits jardins du Lait de Mai""",1,182.76,47.2121267618, -1.54811774306
JARDIN PARTAGE DU PORT DURAND  - G,42 RUE AIMEE BARTHELOU,Amitié convivialité,1,303.06,47.2516079749, -1.53299968953
AMICALE LAIQUE DE LA JONELIERE  - G,ROUTE DE LA  JONELIERE,,1,8478.02,47.2515134075, -1.54337086327
JARDIN PARTAGE LE VERRIER  - G,RUE CHAMPOLLION,PARENT D'ELEVES ECOLE LE VERRIER,1,149.09,47.2412748113, -1.52176107235
JARDIN PARTAGE  DES ESCARTONS,RUE HENRI SELLIER,LES ESCARTONS,1,382.54,47.1944452454, -1.54245507523
RUE JARDINEE DE L'ABBE BOUTET,RUE ABBE BOUTET,COLLECTIF DE RIVERAINS,2,340.74,47.2023123425, -1.54766292166
RUE JARDINEE DE l'INDRE,RUE DE l'INDRE,COLLECTIF DE RIVERAINS,12,548.71,47.214140423, -1.53807935233
ANGLE CHAILLOU,CHEMIN ANGLE CHAILLOU,"Asso. ""Nature & Jardins Nantes Nord """,58,14469.12,47.2717876096, -1.5716494728
BATIGNOLLES,BD DES BATIGNOLLES,Asso.Jardins Familiaux Nantais,41,7842.69,47.2540384772, -1.52402470216
PORT BOYER  - G,RUE DU PORT BOYER,Asso.Jardins Familiaux Nantais,1,211.8,47.242025912, -1.53884313498
CRESSONNIERE,RUE DES RENARDS,"Asso "" Les jardins de la Cressonnière""",9,1176.76,47.2565927288, -1.56309410411
CRAPAUDINE,AVENUE DES GOBELETS,"Asso.""la crapaudine""",92,23222.69,47.191118307, -1.52996452971
PAPOTAGER (Square G. CHEREAU),RUE DE L'HERRONNIERE,PAPOTAGER,1,858.74,47.2109178842, -1.56292365781
JARDIN POTAGER DE L'OASIS DU CENS  - G,CHEMIN DE LA CENSIVE DU TERTRE,L'OASIS DU CENS,1,536.17,47.2430106152, -1.55278051751
JARDIN PARTAGE 15 LIEUX  - G,RUE  FRESCHE BLANC,FRESCH HEURE,1,324.83,47.2484953013, -1.55249742404
JARDIN PARTAGE  15 LIEUX  - G,CHEMIN DU FORT,COLLECTIF LE FORT,1,1548.63,47.2649802569, -1.52849371719
JARDIN PARTAGE AUDENCIA  - G,CHEMIN DE LA CENSIVE DU TERTRE,,1,49.33,47.2462944969, -1.55203281702
JARDIN PARTAGE DES HAUTS PAVES,RUE D'ANGOUMOIS,CITE DES HAUTS PAVES,1,159.02,47.224163572, -1.56678662364
JARDIN PARTAGE PICASSO  - G,ALLEE DU  SEIL DE MAUVES,COLLECTIF RIVERAINS,1,20.78,47.2145565026, -1.53438699046
JARDIN PARTAGE DES CARMES,RUE ANTOINE DE SAINT EXUPERY,COLLECTIF DE RIVERAINS,1,344.43,47.2393342876, -1.5330815299
RUE JARDINEE DES FROMENTEAUX,RUE DES FROMENTEAUX,COLLECTIF DE RIVERAINS,1,0.68,47.1876938881, -1.5258921594
LA RUCHETTE,SQUARE DE LA HUCHETTE,,1,264.13,47.21336834, -1.56939314759
